{
	"info": {
		"_postman_id": "9a537e55-d975-48a1-a7ed-1ca6db403cb3",
		"name": "FakeRestApi",
		"schema": "https://schema.getpostman.com/json/collection/v2.1.0/collection.json",
		"_exporter_id": "11437424"
	},
	"item": [
		{
			"name": "Activities",
			"item": [
				{
					"name": "Get All Activities",
					"event": [
						{
							"listen": "test",
							"script": {
								"exec": [
									"pm.test(\"Response status code is 200\", function () {\r",
									"  pm.response.to.have.status(200);\r",
									"});\r",
									"\r",
									"pm.test(\"Response should contain 30 objects with field 'id'\", function () {\r",
									"  var jsonData = pm.response.json();\r",
									"  pm.expect(jsonData).to.be.an('array').with.lengthOf(30);\r",
									"  jsonData.forEach(function (activity) {\r",
									"    pm.expect(activity).to.have.property('id');\r",
									"  });\r",
									"});"
								],
								"type": "text/javascript"
							}
						}
					],
					"request": {
						"method": "GET",
						"header": [
							{
								"key": "accept",
								"value": "text/plain; v=1.0"
							}
						],
						"url": {
							"raw": "https://fakerestapi.azurewebsites.net/api/v1/Activities",
							"protocol": "https",
							"host": [
								"fakerestapi",
								"azurewebsites",
								"net"
							],
							"path": [
								"api",
								"v1",
								"Activities"
							]
						}
					},
					"response": []
				},
				{
					"name": "POST Activities",
					"event": [
						{
							"listen": "test",
							"script": {
								"exec": [
									"pm.test(\"Status code is 200\", function () {\r",
									"  pm.response.to.have.status(200);\r",
									"});\r",
									"\r",
									"pm.test(\"Field id should be equal to 31\", function () {\r",
									"  pm.expect(pm.response.json().id).to.equal(31);\r",
									"});\r",
									"\r",
									"pm.test(\"Field title should be equal Atividade Quality\", function () {\r",
									"  pm.expect(pm.response.json().title).to.equal(\"Atividade Quality\");\r",
									"});"
								],
								"type": "text/javascript"
							}
						}
					],
					"request": {
						"method": "POST",
						"header": [
							{
								"key": "accept",
								"value": "text/plain; v=1.0"
							},
							{
								"key": "Content-Type",
								"value": "application/json; v=1.0"
							}
						],
						"body": {
							"mode": "raw",
							"raw": "{\r\n  \"id\": 31,\r\n  \"title\": \"Atividade Quality\",\r\n  \"dueDate\": \"2023-09-12T00:00:00\",\r\n  \"completed\": true\r\n}"
						},
						"url": {
							"raw": "https://fakerestapi.azurewebsites.net/api/v1/Activities",
							"protocol": "https",
							"host": [
								"fakerestapi",
								"azurewebsites",
								"net"
							],
							"path": [
								"api",
								"v1",
								"Activities"
							]
						}
					},
					"response": []
				}
			]
		}
	]
}